Mini-Project 3: Do Proportional Electoral College Allocations Yield a More Representative Presidency? – STA 9750 2024 Submission Material
…
# Display the table of changes
print(seats_change)

# A tibble: 50 × 4
   state          year_1976 year_2022 change
   <chr>              <int>     <int>  <int>
 1 TEXAS                 24        38     14
 2 FLORIDA               15        28     13
 3 CALIFORNIA            43        52      9
 4 ARIZONA                4         9      5
 5 GEORGIA               10        14      4
 6 COLORADO               5         8      3
 7 NEVADA                 1         4      3
 8 NORTH CAROLINA        11        14      3
 9 WASHINGTON             7        10      3
10 OREGON                 4         6      2
# ℹ 40 more rows
…
# Summarize congressional votes by state and year
cong_votes_by_state <- house_votes %>%
  filter(party == "DEMOCRAT") %>%
  group_by(year, state) %>%
  summarize(cong_votes = sum(candidatevotes), .groups = 'drop')
# Compare presidential and congressional votes
votes_comparison <- pres_votes_by_state %>%
  inner_join(cong_votes_by_state, by = c("year", "state")) %>%
  mutate(vote_difference = pres_votes - cong_votes)
# Display the table of vote differences
print(votes_comparison)

# A tibble: 592 × 5
    year state       pres_votes cong_votes vote_difference
   <dbl> <chr>            <dbl>      <dbl>           <dbl>
 1  1976 ALABAMA         659170     667052           -7882
 2  1976 ALASKA           44058      34194            9864
 3  1976 ARIZONA         295602     355747          -60145
 4  1976 ARKANSAS        498604     260998          237606
 5  1976 CALIFORNIA     3742284    4144324         -402040
 6  1976 COLORADO        460801     454741            6060
 7  1976 CONNECTICUT     647895     681730          -33835
 8  1976 DELAWARE        122461     102411           20050
 9  1976 FLORIDA        1636000    1125786          510214
10  1976 GEORGIA         979409     929829           49580
# ℹ 582 more rows
…
This bar chart compares the vote differences for Democratic and Republican candidates. The Democratic candidates have lower average vote differences than Republican candidates, it suggests that Democratic presidential candidates tend to run behind of their congressional counterparts more often.

# Identify presidents who were more or less popular than their co-partisans
president_popularity <- votes_comparison_party %>%
  group_by(year, party_simplified) %>%
  summarize(avg_vote_difference = mean(vote_difference), .groups = 'drop') %>%
  arrange(desc(avg_vote_difference))

# Display the table of president popularity
print(president_popularity)

# A tibble: 39 × 3
    year party_simplified avg_vote_difference
   <dbl> <chr>                          <dbl>
 1  1984 REPUBLICAN                   311941.
 2  1988 REPUBLICAN                   231984.
 3  2008 REPUBLICAN                   153982.
 4  1976 REPUBLICAN                   152969.
 5  2012 DEMOCRAT                     139929.
 6  1980 REPUBLICAN                   131011.
 7  2004 REPUBLICAN                   122565.
 8  2004 DEMOCRAT                     120429.
 9  2016 DEMOCRAT                      88731.
10  2000 DEMOCRAT                      88021.
# ℹ 29 more rows
…
